^Z:\VISUALSTUDIO ПРОЕКТЫ\HOMEWORK_14.3\DEBUG\HOMEWORK_14.3.OBJ
Z:\VISUALSTUDIO проекты\HOMEWORK_14.3\DEBUG\HOMEWORK_14.3.EXE
Z:\VISUALSTUDIO проекты\HOMEWORK_14.3\DEBUG\HOMEWORK_14.3.ILK
Z:\VISUALSTUDIO ПРОЕКТЫ\HOMEWORK_14.3\DEBUG\HOMEWORK_14.3.PDB
